     _   _   _ _____ _   _ __  __ _   _ ____   ___ ____   ___       ____  _____ ______     _____ ____ _____
    / \ | | | |_   _| | | |  \/  | \ | |___ \ / _ \___ \ / _ \     / ___|| ____|  _ \ \   / /_ _/ ___| ____|
   / _ \| | | | | | | | | | |\/| |  \| | __) | | | |__) | | | |____\___ \|  _| | |_) \ \ / / | | |   |  _|
  / ___ \ |_| | | | | |_| | |  | | |\  |/ __/| |_| / __/| |_| |_____|__) | |___|  _ < \ V /  | | |___| |___
 /_/   \_\___/  |_|  \___/|_|  |_|_| \_|_____|\___/_____|\___/     |____/|_____|_| \_\ \_/  |___\____|_____|
